<?xml version="1.0" encoding="utf-8"?>
<!-- Generator: Adobe Illustrator 19.1.0, SVG Export Plug-In . SVG Version: 6.00 Build 0)  -->
<svg version="1.1" id="Ebene_1" xmlns="http://www.w3.org/2000/svg" xmlns:xlink="http://www.w3.org/1999/xlink" x="0px" y="0px"
	 viewBox="0 0 612 792" style="enable-background:new 0 0 612 792;" xml:space="preserve">
<style type="text/css">
	.st0{fill:#F08C0D;}
	.st1{fill:#1FA54A;}
</style>
<path class="st0" d="M549.5,178c-11.7,0-21.3,9.6-21.3,21.3v361.6c0,11.7,9.6,21.3,21.3,21.3c11.7,0,21.3-9.6,21.3-21.3V199.3
	C570.8,187.6,561.2,178,549.5,178"/>
<path class="st0" d="M39,369.4v21.3c0,23.5,19,42.5,42.5,42.5V326.9C58,326.9,39,345.9,39,369.4"/>
<path class="st1" d="M124.1,305.6c-11.7,0-21.3,9.6-21.3,21.3v106.4c0,6.1,2.7,11.5,6.8,15.4l24.8,133.9
	c2.1,11.5,13.4,20.9,25.1,20.9H195c11.7,0,19.8-9.5,18-21l-19.9-127.9h16L507,560.9V199.3L209.2,305.6L124.1,305.6L124.1,305.6z"/>
</svg>
