<?xml version="1.0" encoding="UTF-8" standalone="no"?>
<svg
   xmlns:dc="http://purl.org/dc/elements/1.1/"
   xmlns:cc="http://creativecommons.org/ns#"
   xmlns:rdf="http://www.w3.org/1999/02/22-rdf-syntax-ns#"
   xmlns:svg="http://www.w3.org/2000/svg"
   xmlns="http://www.w3.org/2000/svg"
   xmlns:sodipodi="http://sodipodi.sourceforge.net/DTD/sodipodi-0.dtd"
   xmlns:inkscape="http://www.inkscape.org/namespaces/inkscape"
   width="24"
   height="24"
   viewBox="0 0 24 24"
   version="1.1"
   id="svg4"
   sodipodi:docname="ext_icon.svg"
   inkscape:version="0.92.1 r15371">
  <metadata
     id="metadata10">
    <rdf:RDF>
      <cc:Work
         rdf:about="">
        <dc:format>image/svg+xml</dc:format>
        <dc:type
           rdf:resource="http://purl.org/dc/dcmitype/StillImage" />
        <dc:title></dc:title>
      </cc:Work>
    </rdf:RDF>
  </metadata>
  <defs
     id="defs8" />
  <sodipodi:namedview
     pagecolor="#ffffff"
     bordercolor="#666666"
     borderopacity="1"
     objecttolerance="10"
     gridtolerance="10"
     guidetolerance="10"
     inkscape:pageopacity="0"
     inkscape:pageshadow="2"
     inkscape:window-width="1920"
     inkscape:window-height="1137"
     id="namedview6"
     showgrid="false"
     showguides="false"
     inkscape:guide-bbox="true"
     inkscape:zoom="19.666667"
     inkscape:cx="28.666556"
     inkscape:cy="15.675345"
     inkscape:window-x="-8"
     inkscape:window-y="-8"
     inkscape:window-maximized="1"
     inkscape:current-layer="svg4">
    <sodipodi:guide
       position="1.3220339,24.457627"
       orientation="1,0"
       id="guide4539"
       inkscape:locked="false" />
  </sodipodi:namedview>
  <path
     d="M11 11h-11v-11h11v11zm13 0h-11v-11h11v11zm-13 13h-11v-11h11v11zm13 0h-11v-11h11v11z"
     id="path2"
     style="fill:#20a64b;fill-opacity:1" />
  <path
     style="fill:#f18d0e;stroke:none;stroke-width:0.10169491;fill-opacity:1"
     d="M 13.016949,18.518644 V 13.077966 H 18.508475 24 v 5.440678 5.440678 h -5.491525 -5.491526 z"
     id="path4487"
     inkscape:connector-curvature="0" />
  <path
     style="fill:#f18d0e;stroke:none;stroke-width:0.00898865;fill-opacity:1"
     d="m 13.008597,17.775381 -0.0022,-4.775218 h 5.496557 5.496556 v 0.03595 0.03595 h -5.492054 -5.492054 l -0.0023,4.739263 -0.0023,4.739263 z"
     id="path4489"
     inkscape:connector-curvature="0" />
  <path
     style="fill:#a0a0a0;stroke:none;stroke-width:0.00898865"
     d="m 13.008523,13.505774 -0.0022,-0.505611 h 5.496557 5.496556 v 0.03595 0.03595 h -5.491982 -5.491982 l -0.0024,0.469656 -0.0024,0.469657 z"
     id="path4491"
     inkscape:connector-curvature="0" />
  <path
     style="fill:#f18d0e;stroke:none;stroke-width:0.00898865;fill-opacity:1"
     d="M 13.024335,17.813582 V 13.08106 h 5.487568 5.487568 v 4.732522 4.732522 h -5.487568 -5.487568 z"
     id="path4493"
     inkscape:connector-curvature="0" />
  <path
     style="fill:#a0a0a0;stroke:none;stroke-width:0.00898865"
     d="m 13.008057,13.087802 -0.0017,-0.08764 h 5.496557 5.496556 v 0.03595 0.03595 h -5.491614 -5.491613 l -0.0032,0.05168 c -0.0022,0.03487 -0.0038,0.02317 -0.0049,-0.03595 z"
     id="path4495"
     inkscape:connector-curvature="0" />
  <path
     style="fill:#a0a0a0;stroke:none;stroke-width:0.00898865"
     d="m 13.008057,13.087802 -0.0017,-0.08764 h 5.496557 5.496556 v 0.03595 0.03595 h -5.491614 -5.491613 l -0.0032,0.05168 c -0.0022,0.03487 -0.0038,0.02317 -0.0049,-0.03595 z"
     id="path4497"
     inkscape:connector-curvature="0" />
  <path
     style="fill:#a0a0a0;stroke:none;stroke-width:0.00898865"
     d="m 13.008057,13.087802 -0.0017,-0.08764 h 5.496557 5.496556 v 0.03595 0.03595 h -5.491614 -5.491613 l -0.0032,0.05168 c -0.0022,0.03487 -0.0038,0.02317 -0.0049,-0.03595 z"
     id="path4499"
     inkscape:connector-curvature="0" />
  <rect
     style="fill:#f18d0e;fill-opacity:1;stroke:none;stroke-opacity:1"
     id="rect4501"
     width="10.993603"
     height="10.999837"
     x="13.006397"
     y="13.000163" />
  <rect
     style="fill:#f18d0e;fill-opacity:1;stroke:none;stroke-width:1.0124228;stroke-opacity:1"
     id="rect4503"
     width="8.3389835"
     height="0.76271188"
     x="1.322034"
     y="1.6271186" />
  <rect
     style="fill:#f18d0e;fill-opacity:1;stroke:none;stroke-width:1.0124228;stroke-opacity:1"
     id="rect4503-2"
     width="8.3389835"
     height="0.76271188"
     x="1.322034"
     y="3.3813562" />
  <rect
     style="fill:#f18d0e;fill-opacity:1;stroke:none;stroke-width:1.0124228;stroke-opacity:1"
     id="rect4503-2-5"
     width="8.3389835"
     height="0.76271188"
     x="1.322034"
     y="5.1440687" />
  <rect
     style="fill:#f18d0e;fill-opacity:1;stroke:none;stroke-width:1.0124228;stroke-opacity:1"
     id="rect4503-2-5-3"
     width="8.3389835"
     height="0.76271188"
     x="1.3220308"
     y="6.8898335" />
  <rect
     style="fill:#f18d0e;fill-opacity:1;stroke:none;stroke-width:1.0124228;stroke-opacity:1"
     id="rect4503-2-5-3-9"
     width="8.3389835"
     height="0.76271188"
     x="1.3220345"
     y="8.6864376" />
  <rect
     style="fill:#f18d0e;fill-opacity:1;stroke:none;stroke-width:0.6754629;stroke-opacity:1"
     id="rect4503-0"
     width="3.7118657"
     height="0.76271188"
     x="14.491524"
     y="1.5805097" />
  <rect
     style="fill:#f18d0e;fill-opacity:1;stroke:none;stroke-width:0.6754629;stroke-opacity:1"
     id="rect4503-2-9"
     width="3.7118657"
     height="0.76271188"
     x="14.491524"
     y="3.3347473" />
  <rect
     style="fill:#f18d0e;fill-opacity:1;stroke:none;stroke-width:0.6754629;stroke-opacity:1"
     id="rect4503-2-5-1"
     width="3.7118657"
     height="0.76271188"
     x="14.491524"
     y="5.0974607" />
  <rect
     style="fill:#f18d0e;fill-opacity:1;stroke:none;stroke-width:0.6754629;stroke-opacity:1"
     id="rect4503-2-5-3-1"
     width="3.7118657"
     height="0.76271188"
     x="14.491523"
     y="6.8432255" />
  <rect
     style="fill:#f18d0e;fill-opacity:1;stroke:none;stroke-width:0.6754629;stroke-opacity:1"
     id="rect4503-2-5-3-9-6"
     width="3.7118657"
     height="0.76271188"
     x="14.491524"
     y="8.6398287" />
  <rect
     style="fill:#f18d0e;fill-opacity:1;stroke:none;stroke-width:0.71675628;stroke-opacity:1"
     id="rect4598"
     width="3.8135595"
     height="4.3728814"
     x="5.949152"
     y="18.355932" />
  <rect
     style="fill:#f18d0e;fill-opacity:1;stroke:none;stroke-width:0.6754629;stroke-opacity:1"
     id="rect4503-2-5-1-5"
     width="3.7118657"
     height="0.76271188"
     x="1.3220339"
     y="18.389833" />
  <rect
     style="fill:#f18d0e;fill-opacity:1;stroke:none;stroke-width:0.6754629;stroke-opacity:1"
     id="rect4503-2-5-3-1-4"
     width="3.7118657"
     height="0.76271188"
     x="1.3220329"
     y="20.135597" />
  <rect
     style="fill:#f18d0e;fill-opacity:1;stroke:none;stroke-width:0.6754629;stroke-opacity:1"
     id="rect4503-2-5-3-9-6-7"
     width="3.7118657"
     height="0.76271188"
     x="1.3220339"
     y="21.932201" />
  <rect
     style="fill:#f18d0e;fill-opacity:1;stroke:none;stroke-width:0.97967857;stroke-opacity:1"
     id="rect4621"
     width="8.4915257"
     height="2.8983052"
     x="1.3220339"
     y="14.084745" />
  <rect
     style="fill:#f18d0e;fill-opacity:1;stroke:none;stroke-opacity:1"
     id="rect4623"
     width="3.6101694"
     height="8.0338984"
     x="19.220339"
     y="1.4576268" />
  <rect
     style="fill:#20a64b;fill-opacity:1;stroke:none;stroke-width:1.78768551;stroke-opacity:1"
     id="rect4627"
     width="8.4406786"
     height="8.8983049"
     x="14.288136"
     y="14.152555" />
</svg>
