<?xml version="1.0" encoding="UTF-8" standalone="no"?>
<svg
   xmlns:dc="http://purl.org/dc/elements/1.1/"
   xmlns:cc="http://creativecommons.org/ns#"
   xmlns:rdf="http://www.w3.org/1999/02/22-rdf-syntax-ns#"
   xmlns:svg="http://www.w3.org/2000/svg"
   xmlns="http://www.w3.org/2000/svg"
   xmlns:sodipodi="http://sodipodi.sourceforge.net/DTD/sodipodi-0.dtd"
   xmlns:inkscape="http://www.inkscape.org/namespaces/inkscape"
   width="16"
   height="16"
   version="1.1"
   id="svg56"
   sodipodi:docname="icon-mooxmailer-draft-folder.svg"
   inkscape:version="0.92.4 (5da689c313, 2019-01-14)">
  <metadata
     id="metadata62">
    <rdf:RDF>
      <cc:Work
         rdf:about="">
        <dc:format>image/svg+xml</dc:format>
        <dc:type
           rdf:resource="http://purl.org/dc/dcmitype/StillImage" />
        <dc:title></dc:title>
      </cc:Work>
    </rdf:RDF>
  </metadata>
  <defs
     id="defs60" />
  <sodipodi:namedview
     pagecolor="#ffffff"
     bordercolor="#666666"
     borderopacity="1"
     objecttolerance="10"
     gridtolerance="10"
     guidetolerance="10"
     inkscape:pageopacity="0"
     inkscape:pageshadow="2"
     inkscape:window-width="1920"
     inkscape:window-height="1017"
     id="namedview58"
     showgrid="false"
     inkscape:zoom="7.375"
     inkscape:cx="19.032886"
     inkscape:cy="18.583569"
     inkscape:window-x="-8"
     inkscape:window-y="-8"
     inkscape:window-maximized="1"
     inkscape:current-layer="svg56" />
  <g
     id="g69"
     transform="matrix(0.2501693,0,0,0.25017338,-0.00541546,12.002773)">
    <path
       style="fill:#f18d0e"
       inkscape:connector-curvature="0"
       id="svg_1"
       d="m 63.32568,-34.15858 h -4.22503 l 2.73846,-2.48843 c 0.17912,-0.18014 0.17912,-0.34931 0,-0.52681 l -1.92243,-1.85956 c -0.17882,-0.18028 -0.24286,-0.14943 -0.42461,0.03071 l -2.52323,2.78174 v -4.24886 c 0,-0.25295 -0.65679,-0.49889 -0.90829,-0.49889 h -2.72179 c -0.25178,0 -0.90814,0.24593 -0.90814,0.49889 v 4.23073 l -2.51504,-2.73437 c -0.17589,-0.18028 -0.3575,-0.18028 -0.53369,0 l -1.86936,1.91966 c -0.18175,0.17751 -0.15367,0.22634 0.02778,0.40385 l 2.76653,2.49121 h -4.23351 c -0.25178,0 -0.45282,0.70139 -0.45282,0.95011 v 2.72442 c 0,0.24886 0.20104,0.86501 0.45282,0.86501 h 4.25296 l -2.75542,2.54589 c -0.17575,0.17751 -0.17575,0.36598 0,0.55035 l 1.92243,1.86819 c 0.18175,0.17736 0.25149,0.1509 0.42767,-0.02661 l 2.50949,-2.76376 v 4.22386 c 0,0.25149 0.65636,0.41218 0.90814,0.41218 h 2.72164 c 0.25149,0 0.90829,-0.16069 0.90829,-0.41218 v -4.23219 l 2.51767,2.74416 c 0.18438,0.17751 0.36057,0.17751 0.53661,0 l 1.87213,-1.92243 c 0.17619,-0.17736 0.14534,-0.26684 -0.03071,-0.44727 l -2.77487,-2.54005 h 4.23629 c 0.25178,0 0.45282,-0.61615 0.45282,-0.86501 v -2.72442 c 0,-0.24871 -0.20104,-0.95011 -0.45282,-0.95011"
       stroke="null" />
    <polygon
       transform="translate(0,-48)"
       style="fill:#20a64b"
       id="svg_2"
       points="0.22151184,25.189455 13.841434,38.810693 0.22151184,52.430471 "
       stroke="null" />
    <path
       style="fill:#20a64b"
       inkscape:connector-curvature="0"
       id="svg_3"
       d="M 27.46121,-0.11038 0.22283,-27.34876 h 41.65328 c 1.05333,2.96495 3.1018,5.45747 5.74522,7.0768 L 27.46122,-0.11038 Z"
       stroke="null" />
    <path
       style="fill:#20a64b"
       inkscape:connector-curvature="0"
       id="svg_4"
       d="m 50.74842,-18.85792 c 1.24897,0.38016 2.57631,0.58968 3.94839,0.58968 v 22.6987 l -13.61714,-13.61978 9.66876,-9.66861 v 10e-6 z"
       stroke="null" />
    <polygon
       transform="translate(0,-48)"
       style="fill:#20a64b"
       id="svg_5"
       points="16.110394,41.079656 27.461206,52.430471 38.810707,41.079656 54.699448,56.968687 0.22282779,56.968687 "
       stroke="null" />
  </g>
</svg>
